INDEX VERSION 1.3+C:\GIT\music\Homepage\.metadata\.plugins\org.eclipse.wst.jsdt.core\indexes
2872999956.index
2239192931.index
703592859.index
1766533123.index
1540801112.index
622841373.index
4218425981.index
